{
  "project_info": {
    "project_number": "1001663099522",
    "project_id": "rangkulapp",
    "storage_bucket": "rangkulapp.appspot.com"
  },
  "client": [
    {
      "client_info": {
        "mobilesdk_app_id": "1:1001663099522:android:3eac617e08ddc9bbeeba9b",
        "android_client_info": {
          "package_name": "com.example.rangkulapp"
        }
      },
      "oauth_client": [
        {
          "client_id": "1001663099522-2prm0ru2m66g32srfh9flip6f4d3kiku.apps.googleusercontent.com",
          "client_type": 3
        }
      ],
      "api_key": [
        {
          "current_key": "AIzaSyBF3yllthF4-7eoRlX2B92Iyj3GztNgmZ0"
        }
      ],
      "services": {
        "appinvite_service": {
          "other_platform_oauth_client": [
            {
              "client_id": "1001663099522-2prm0ru2m66g32srfh9flip6f4d3kiku.apps.googleusercontent.com",
              "client_type": 3
            }
          ]
        }
      }
    }
  ],
  "configuration_version": "1"
}